Name,Fred Meyer
Address,"22075 NW Imbrie Dr, Hillsboro, OR 97124, United States"
Google Place API,ChIJrXb0SZAFlVQRuqy1xj1U5hE
1,lentil bean
1,snappy crisp
1,salad mix spinach
1,baby kale
1,protein shake
1,naked juice
1,organic juice
1,pepper
1,green pepper
1,yellow pepper
1,coconut juice
1,orange juice
1,pomegranate juice
1,naked juice
1,carrot juice
1,peas
1,green beans
1,carrots
1,mushroom
1,green onions
1,bread
1,organic milk
1,cashew and almond milk
1,almond milk
1,soy milk
1,yogurt
1,eggs
1,organic eggs
1,ice cream
1,waffel
1,freezed quinoa
1,frozen vegetables
1,frozen meals
1,frozen burrito
1,chicken strings
1,frozen pizza
2,dinners
2,entree
2,vegetables
2,frozen food
2,meat balls
2,frozen steak
2,frozen meals
2,frozen pasta
2,meat loaf
2,frozen ribs
2,frozen snacks
2,nuggets
2,meals
2,frozen vegetables
2,frozen fries
2,hashbrowns
2,frozen chicken
2,frozen snacks
2,dumpling
2,corndogs
2,frozen tortillas
2,pizza
2,fish sticks
2,shrimp scampi
2,grilled salmon
2,grilled tilapia
2,frozen meat
2,turkey
2,ice cubes
2,dried pepperoni
3,dessert 
3,icecream
3,popsicles
3,icecream
3,drumstick
3,sneakers
3,haagen dazs
3,fudge bar
3,frozen fruits
3,whip cream
3,frozen cheesecake
3,frozen pecan pie
3,frozen pie
3,breakfast
3,wine
3,juice
3,frozen breakfast
3,waffles
3,pan cake
3,wine
3,champagne
3,breakfast sandwich
3,frozen concentrated apple
3,frozen concentrated fruits
4,chilled wine
4,cold beverage
4,beer
4,beef jerky
4,coffee
4,dr pepper
4,coke
4,fanta
4,cold coffee
4,monster
4,red bull
4,box wine
4,chocolate syrup
4,jam
4,sundae syrup
4,caramel syrup
4,butterscotch syrup
4,cake cup
4,pringles
4,che mix
4,lays
4,potato chips
4,chocolate fudge
4,pretzels
4,cheetos
4,tortilla chips
4,salsa
4,tortillas
4,doritos
4,pop corn
4,cheese balls
5,cookies
5,crackers
5,snacks
5,gift cards
5,cheese
5,pretzels
5,cookies
5,biscotti
5,chocolate chips cookies
5,milano
5,peanut butter cookies
5,peanuts
5,popcorn
5,roasted almonds
5,roasted dry fruits
5,roasted macadamia nuts
5,roasted pistachio
5,roasted sunflower seed
5,walnuts
5,snacks mix
5,sunflower seed
5,che mix
5,almond pecan popcorn mix
5,corn nuts
5,pumpkin seeds
5,roasted peanuts
5,pistachio cookies
5,crackers
5,rice crisps
5,easy cheese
5,crisp bread
5,gold fish cookies
5,peanut butter cookies
5,jam
5,honey
5,nutella
5,water
5,pepsi 
5,coke
5,soda
5,sparkling water
5,carbonated water
5,vitamin water
5,switzler water
5,snapple
5,lemonade
5,arizona tea
5,energy drinks
5,bloody mary mixer
5,cream of coconut
5,simply syrup
5,cane sugar
5,mohiti mixer
5,cocktail mixer
5,mai tai mix
5,gatorade power
5,gatorade power
5,muscle milk
5,powerade
5,canada dry 
5,sunkist 
5,7up
5,mellow yellow
5,margarita mixer
6,box juice
6,candy 
6,juice
6,chocolate
6,fruit flavor chocolate
6,flavored water
6,juice
6,box juice
6,vegetable juice
6,v8
6,lemon juice
6,cranberry juice
6,cranberry mango
6,raspberry juice
6,apple
6,lemon candy
6,ocean spray juice
6,chew candy
6,gummies
6,chewing gum
6,cereal
6,oatmeal
6,shredded wheat
6,juice
6,juice powder
6,chocolate dip
6,carmel dip
6,marshmallow dip
6,fruit spread
6,grape spread
6,peanuts spread
6,orange spread
6,syrup
6,maple syrup
6,sugar free cookies
6,cappuccino mousse mix
6,sugar free chocolates
6,spaghetti
6,molasas
6,corn syrup
6,honey bunches oat
6,kelloggs
6,oat bran
6,waffle mix
6,pancake mix
6,maple syrup
6,protein bar
6,chewy  bar
6,fiber one bar
6,kellogs protein bar
6,protein bar
7,can fruits
7,coffee
7,cheetos
7,herbal tea
7,fruit tea
7,black tea
7,bigelow tea
7,spice tea
7,chocolate chai latte
7,expresso
7,stash tea
7,tazo tea
7,lipton tea
7,tetley tea bags
7,coffee
7,diced fruits
7,apple sauce
7,cinnamon apple sauce
7,starbox coffee
7,canned sliced fruits
7,canned fruits
7,jello powder
7,jello mix
7,mooze milk chocolate
7,coffee mate
7,nestle chocolate
7,chocolate syrup
7,chocolate pudding
7,oreo
7,pie crust mix
7,cracker crumbs
7,minced meat
7,pie crust mix
7,canned fruits
7,canned soup
7,chicken broth
7,beef broth
7,core vegetable recipe mix
7,cheddar potato soup mix
7,soup and dip mix
7,noodles
7,flavored noodles
7,canned chili
7,canned chicken breast
7,spam
7,chunky chilli
7,mini ravioli
7,beef stew
7,chicken alfredo
7,camplets
7,curry paste
7,chatney
7,kasha
7,couscous
7,potato pancake mix
7,noodle soup
7,onion soup and dip mix
7,mozatto bowl mix
7,mozatto bowl and soup mix
7,consomme
7,albacore
7,solid white albacore
7,canned tuna
7,light tuna in water
7,tuna salad
7,knorr alfredo
7,knorr sauce
7,pasta roni
7,pasta
7,macaroni and cheese
7,canned soup
7,pronto
7,pasta sauce
7,ragu sauce
7,parmesan cheese
14,lip care
14,lip liner
14,lipstick
14,makeup 
14,eye liner
14,mascara
14,foundation
14,makeup remover
14,lipstick
14,foundation
14,lash stretch brush
14,nail polish
14,deep facial cleansing system
14,cotton
14,round cotton
14,cotton buds
14,make up brush
14,eyelashes
14,spa treatment mask
14,wash off mask
14,brow shaver
14,brow comb
14,lash comb
14,lash adhesive
14,conditioner
14,shampoo
14,styler
14,hair spray
14,dandruff shampoo
14,hair treatment shampoo
14,instant freeze moss