Name,WinCo Foods,
Address,"7330 NE Butler St, Hillsboro, OR 97124, United States",
Google Place API,ChIJl2XHZ38PlVQR9dLLMfWC26Y,
,,
Aisle #,Item Name,Comment
1a,pringles,
1a,pchexmix,
1a,munchies,
1a,stax,
1a,potato chips,
1a,tortilla chips,
1a,party mix,
1a,dortios,
1a,tostios,
1a,bbq rings,
1a,chetos,
1a,oreo,
1a,cookies,
1a,wafers,
1a,breakfast belvita,
1a,fudge,
1a,crackers,
1a,pretzels,
1a,saltine,
1a,cheez-it,
1a,goldfish,
1a,wheat thins,
1a,woven wheats,
1a,triscuit,
1a,ritz crackers,
1a,crackers,
,,
2a,candies,
2a,skittles,
2a,chocolates,
2a,dark chocolates,
2a,snickers,
2a,cadbury milk,
2a,twizzlers,
2a,can nuts,
2a,peanuts,
2a,mix nuts,
2a,jerky,
2a,beef jerky,
2a,turkey jerky,
2a,teriyaki jerky,
2a,rice crisp,
2a,popping corn,
2a,pop corn,
2a,rice cakes,
2a,flavored oils,
2a,baked crackers,
2a,biscoff,
2a,sandwich crackers,
2a,milano,
2a,milano cookies,
2a,nut thins,
2a,gingerman cookies,
2a,santa cruz cookies,
2a,greeting cards,
,,
,,
3a,wicker blowout,
3a,coffee mug,
3a,tea mug ,
3a,water bottle,
3a,steel water bottle,
3a,beer mug,
3a,wine glass,
3a,travel mug,
3a,glass cup set,
3a,multifunction tool,
3a,emergency fuel and fire starter,
3a,flashlights,
3a,heat pack,
3a,wool blanket,
3a,flashlight lantern,
3a,silver solution,
3a,toe warmers,
3a,throw,
3a,wall clock,
3a,cast iron mould,
3a,bamboo tray,
3a,casserole rectangular,
3a,baking dish,
3a,pizza baking,
3a,mug,
3a,dinner plate,
3a,soup bowl,
3a,brownie pan,
3a,food trays,
3a,cake stand,
3a,mixing bowls,
3a,glass jar,
3a,colander,
3a,measuring cups,
3a,water pitchers,
3a,oil and vinegar set,
3a,chip and dip,
3a,serve and store tray,
3a,waste basket,
3a,fondue set,
3a,dubblebbl homerun bat,
3a,frank food sponge bob,
3a,easter basket,
3a,reese's peanut butter,
3a,greeting cards,
3a,Mnm,
3a,STARBURST,
3a,twix,
3a,milk chocolate aids,
3a,sunflower seed,
3a,mix nuts,
3a,twirl tuins,
3a,kite,
3a,sand castle mold,
3a,plastic extruded tools,
3a,plastic shovel,
3a,kids toys,
3a,ice cream sundae,
3a,sunscreen lotions,
3a,disposable swim pants,
3a,swim pans,
,,
,,
4a,pocket facial tissue paper,
4a,dayquil,
4a,brief men,
4a,shields men,
4a,underwear culottes,
4a,sanitary pad,
4a,bladder supports,
4a,bladder liners,
4a,tampax,
4a,urinary pain relief,
4a,fish oil,
4a,vitamin d3,
4a,calcium,
4a,cold relief,
4a,multi vitamins,
4a,nutrition sick,
4a,gummy vitamins,
4a,one aday multivitamins,
4a,sentrum,
4a,cod liver oil,
4a,biotin,
4a,vitamin b12,
4a,naproxen sodium,
4a,advil,
4a,ibuprofen,
4a,aspirin,
4a,aleve,
4a,tussin cs,
4a,allergy meds,
4a,clatrin,
4a,allegra,
4a,benadryl,
4a,airborne,
4a,sudafed,
4a,tylenol,
4a,alka seltzer,
4a,delsom,
4a,nyquil,
4a,cold and flu relief,
4a,mucinex,
4a,chap stick,
4a,oral anesthetic drops,
4a,throat drops,
4a,neosporin drops,
4a,antibiotics ointment,
4a,clear tape,
4a,bandade,
4a,latex gloves,
4a,latex free gloves,
4a,ear loop mask,
4a,capsaicin,
4a,transparent dressing ,
4a,neomycin sulfate ointment,
4a,imodium,
4a,antacid,
4a,pepto bismol,
4a,zantac,
4a,cortizone,
4a,hydrocortisone cream,
4a,sterile pad,
4a,adhesive  pads,
4a,milk of magnesia,
4a,contact len solution,
4a,mouthwash,
4a,denture cleanser,
4a,bubble gum blow out,
4a,mouth ringe,
4a,oral ringe,
4a,tooth brush,
4a,toothpaste,
4a,shampoo,
4a,conditioner,
4a,toilet paper,
4a,hair dye,
4a,shaving blades,
4a,shaving machine,
4a,after shave,
4a,shaving cream,
4a,brylcreem,
4a,deodorant,
4a,cleansing cream,
4a,astringent,
4a,moisturizing solution,
4a,acne wash,
4a,fash wash ,
4a,facial cleanser,
4a,blackhead eraser,
4a,deep cleaning pore strips,
4a,facial cleansing towelettes,
4a,facial wipes,
4a,soap bar,
4a,hand soap,
4a,hand sanitizer,
4a,bath oil,
4a,finishing hair spray,
4a,styling gel,
4a,cotton balls,
4a,cotton swipes,
4a,q tips,
4a,wedges,
4a,cotton squares,
4a,travel packets,
4a,hair straighten iron,
4a,hair clips,
4a,hair bands,
4a,head wrap,
4a,hair brush,
4a,comb,
4a,cosmetic,
4a,nail polish remover,
4a,hand held mirror,
4a,shower caps,
4a,hair dryer,
4a,garden seeds,
4a,batteries,
4a,dental flush,
,,
5a,reading glasses,
5a,apple sauce,
5a,maraschino,
5a,diced peaches cup,
5a,mixed fruits cup,
5a,mandarin oranges cup,
5a,parfait,
5a,canned fruit cocktail,
5a,canned pineapple,
5a,canned mandarin oranges,
5a,canned peaches,
5a,canned cranberry sauce,
5a,salad dressing,
5a,ranch,
5a,mayonnaise,
5a,dips mix,
5a,whipped dressing,
5a,mustard,
5a,honey mustard,
5a,sweet hot mustard,
5a,dijon ,
5a,sriracha mustard,
5a,bacon mustard,
5a,yellow mustard,
5a,ketchup,
5a,bbq sauce,
5a,steak sauce,
5a,cocktail sauce,
5a,chilly sauce,
5a,sweet n sour sauce,
5a,pickle,
5a,cup olives,
5a,olives,
5a,vinegar,
5a,apple cider vinegar,
5a,balsamic vinegar,
5a,red wine vinegar,
5a,sherry cooking wine,
5a,chilli,
5a,box casserole,
5a,mash potatoes,
5a,scalloped potatoes,
5a,au gratin,
5a,julianne ,
5a,canned potatoes,
5a,canned beets,
5a,canned sweet potatoes,
5a,canned green beans,
5a,canned lima beans,
5a,canned artichoke,
5a,sliced pimientos,
5a,canned corn,
5a,canned spinach,
5a,canned peas,
5a,canned tomatoes,
5a,canned mushroom,
5a,sauerkraut,
5a,v8,
5a,vegetable juice,
5a,tomato juice,
5a,canned mango juice,
5a,canned apple juice,
5a,canned pineapple juice,
5a,canned apricot,
5a,cranberry juice,
5a,mio mix,
5a,kool aid mix,
5a,tang mix,
5a,juice mix,
5a,apple juice kid ,
5a,kool aid kid,
5a,caprisun ,
5a,lemon juice ,
5a,lemon concentrate,
5a,pineapple juice,
5a,hawaiian punch,
5a,lemonade ,
5a,grapefruit juice,
5a,canned soda drink,
5a,sparkling cider,
,,
6a,boxed noodles,
6a,canned soup,
6a,soup mix,
6a,soup and dip mix,
6a,noodle soup mix,
6a,top ramen,
6a,biscuits sticks,
6a,soy sauce,
6a,teriyaki sauce,
6a,hosin sauce,
6a,szechuan sauce,
6a,sweet chilly sauce,
6a,kung pao sauce,
6a,oyster flavored sauce,
6a,jasmine rice,
6a,chow mein noodles,
6a,fish sauce,
6a,sriracha mayo,
6a,hot chilly sauce,
6a,sweet pickle ginger,
6a,wasabi sauce,
6a,chinese mustard,
6a,sesame seeds,
6a,canned chestnuts,
6a,canned baby corn,
6a,canned bean sprouts,
6a,golden curry sauce mix,
6a,pasta,
6a,chowmein ,
6a,macroni,
6a,penne,
6a,shells,
6a,canned cheese chilli,
6a,macaroni and cheese,
6a,rotini,
6a,pasta sauce,
6a,spaghetti,
6a,alfredo sauce,
6a,spaghetti sauce,
6a,pasta roni,
6a,helper,
6a,box skillets,
6a,rice roni,
6a,extra long grain rice,
6a,dry beans,
6a,dry pinto beans,
6a,dry kidney beans,
6a,dry red beans,
6a,red black eyed beans,
6a,dry lima beans,
6a,dry green split beans,
6a,pearled barley,
6a,canned beans,
6a,canned chilli,
6a,canned spaghetti ,
6a,canned ravioli,
6a,canned albacore,
6a,canned sardines,
6a,seafood snacks,
6a,canned oyster,
6a,canned clams,
6a,canned sausage,
6a,burrito tortillas,
6a,tostadas,
6a,tortilla chips,
,,
,,
7a,cashew milk,
7a,oat milk,
7a,soy milk,
7a,almond milk,
7a,rice milk,
7a,coconut milk,
7a,dry milk,
7a,canned milk,
7a,sweet and condensed milk,
7a,evaporated milk,
7a,coating mix,
7a,bread crumbs,
7a,stuffing mix,
7a,olive oil,
7a,grapeseed oil,
7a,peanut oil,
7a,shortening ,
7a,cooking spray,
7a,snowcap lard,
7a,vegetable oil,
7a,coconut oil,
7a,baking sticks,
7a,birthday stuff,
7a,spices,
7a,seasoning mix,
7a,guacamole mix,
7a,foil spices,
7a,peanut butter,
7a,jam,
7a,diet supplies,
7a,hershey's spread,
7a,sesame seed,
7a,sunflower seed,
7a,biscoff seed,
7a,reese's spread,
7a,nutella,
7a,agave,
7a,mixing bowl set,
7a,protein bar,
7a,protein shake,
7a,pudding ,
7a,jell o,
7a,marshmallows,
7a,chip mix,
7a,pie crust mix,
7a,pei mix,
7a,cake mix,
7a,flour,
7a,sugar,
7a,pan cake syrup,
7a,pancake and waffle mix,
7a,pancake mix,
7a,flour,
7a,bread flour,
7a,caned sugar,
7a,baking blend,
7a,zero calorie sweetener,
7a,cookie mix ,
7a,raisins,
,,
8a,plastic storage set,
8a,coffee rack,
8a,coffee maker,
8a,stationary,
8a,playing card,
8a,clear tape,
8a,invisible tape,
8a,markers,
8a,glues,
8a,copies,
8a,crayola,
8a,pencil lid,
8a,sticky notes,
8a,index cards,
8a,super glue,
8a,printing papers,
8a,calculator,
8a,bubble mailer,
8a,mailing envelope,
8a,granola bar,
8a,pop tarts,
8a,frosted fudge,
8a,assorted fruit,
8a,instant chocolates,
8a,chocolate powder,
8a,chocolate syrup,
8a,tea,
8a,tea bags,
8a,office supplies,
8a,breakfast bars,
8a,coffee,
8a,creamer,
8a,coffee filters,
8a,cereals,
8a,oatmeal,
,,
5b,powerade,
5b,gatorade,
5b,zero water,
5b,coconut water,
5b,pina colada,
5b,bai sparkling water,
5b,liquid green tea,
5b,canned ice tea,
5b,caned arizona fruit cocktail,
5b,caned arizona mango juice,
5b,bottle lipton tea,
5b,snapple,
5b,orange juice,
5b,energy drink,
5b,cascade ice ,
5b,lemonade,
5b,distilled water,
5b,distilled water bottles,
5b,soft drinks,
5b,shasta,
5b,mountain dew,
5b,pepsi,
5b,coke,
5b,crushed orange,
5b,fanta,
5b,sprite,
5b,root beer,
5b,7up,
,,
,,
4b,donuts,
4b,cream pies,
4b,muffins,
4b,flat bread,
4b,gourmet rolls,
4b,sandwich rolls,
4b,bread,
4b,hot dog bunch,
4b,bbq bunch,
4b,french hoagie,
4b,sourdough,
4b,beagles,
4b,dinner rolls,
4b,burger bunch,
4b,garlic bread,
4b,cream pie,
4b,twinkies,
4b,hohos,
4b,coffee cakes,
4b,donettes,